0001;ACADIAN
0002;ACURA
0003;ALFA ROMEO
0004;AMERICAN MOTORS
0005;APRILIA
0006;ARO
0007;ASIA MOTORS
0008;AUDI
0009;AUSTIN
0010;B.M.W.
0011;BAJAJ
0012;BEIGING
0013;BUELL
0014;BUICK
0015;BULTACO
0016;CADILLAC
0017;CHEVROLET
0018;CHRYSLER
0019;CITROEN
0020;COMMER
0021;DACIA
0022;DAELIM
0023;DAEWOO
0024;DAIHATSU
0025;DATSUN
0026;DODGE
0027;DUCATTI
0028;DUNNA
0029;DYNA
0030;F.S.O.
0031;FIAT
0032;FLSTF
0033;FORD
0034;FOX
0035;FXA
0036;G.M.C.
0037;GARELLI
0038;GUZZI
0039;HARLEY
0040;HARLEY-DAVIDSON
0041;HARTFORD
0042;HERO-PUCH
0043;HILLMAN
0044;HONDA
0045;HYOSUNG
0046;HYUNDAI
0047;INDIAN
0048;INTERNATIONAL
0049;ISUZU
0050;JAGUAR
0051;JAWA
0052;JEEP
0053;KAWASAKI
0054;KIA MOTORS
0055;KTM
0056;LADA
0057;LANCIA
0058;LAND ROVER
0059;LINCOLN
0060;LUOJIA
0061;MAICO
0062;MAZDA
0063;MERCEDES BENZ
0064;MERCURY
0065;MINI
0066;MITSUBISHI
0067;MONTESA
0068;MORRIS
0069;MOTO BECANE
0070;MOTORRAD
0071;NISSAN
0072;NSU
0073;OLDSMOBILE
0074;OPEL
0075;PEUGEOT
0076;PIAGGIO
0077;PLYMOUTH
0078;POLARIS
0079;POLSKI FIAT
0080;PONTIAC
0081;PORSCHE
0082;PROTON
0083;PUMA
0084;RENAULT
0085;ROVER
0086;SAAB
0087;SAEHAN
0089;SANFU
0090;SEAT
0091;SIMCA
0092;SKODA
0093;SSANGYONG
0094;SUBARU
0095;SUZUKI
0096;TOYOTA
0097;TRIUMPH
0098;URAL
0099;VESPA
0100;VOLKSWAGEN
0101;VOLVO
0102;WILLYS
0103;YAMAHA
0104;YUGO
0105;ZANELLAS
0106;ZASTAVA
0107;ZUNDAPP
0108;AGRALE
0109;DAEWOO AVIA
0110;FREIGHTLINER
0111;HINO
0112;INDABRA
0113;IVECO
0114;KAMAZ
0115;KENWORTH
0116;KIA
0117;MACK
0118;MAN
0119;NOGE
0120;SCANIA
0121;VOLARE
0122;WESTERN STAR
0123;WESTERN STAR TRUCKS
0124;HECHIZO
0125;AMERITRUCK
0126;ASIA
0127;AUTOCAR
0128;B.M.C
0129;BEDFORD
0130;BELAVTOMAZ
0131;BERLIET
0132;BORGWARD
0133;BUSSING
0134;COMIL GALLEGIANTE
0135;DAF
0136;DIAMOND
0137;DIMEX
0138;DUCATI
0139;EBRO
0140;FARGO
0141;FBM
0142;PEGASO
0143;FEDERAL
0144;FERRARI
0145;FORD TAUNUS
0146;FORD THAMES
0147;GREYHOUND
0148;HENSCHEL
0149;HENSIM
0150;RANDON
0151;HUANGHAI
0152;JIANSHE
0153;JIE FANG
0154;KINLON
0155;KYMCO
0156;LEYLAND
0157;LIAZ
0158;LIFAN
0159;LONCIN
0160;MAGIRUS
0161;MAGIRUS DEUTZ
0162;MARCOPOLO
0163;MASERATI
0164;MG
0165;O.M.
0166;PULLMAN STD AMERIC
0167;RENAULT(BERLIET)
0168;REO
0169;ROMAN
0170;S/M
0171;SETRA
0172;SHENFENG
0173;STUDEBAKER
0174;TAKASAKI
0175;TATA
0176;TATRA
0177;WABCO
0178;WHITE
0179;YUE JIN
0180;ZANELLO
0181;REY
0182;TREMAC
0183;GOREN
0184;BY EMI
0185;FRUEHAUF
0186;MP
0187;CARVAJAL
0188;GREAT DANE
0189;MACHILE
0190;UTILITY
0191;SIMONCELLI
0192;ROADMASTER
0193;DORSEY
0194;TEXAS
0195;ABADA
0196;ACERVI VITERVI
0197;AEDO
0198;AEOLUS
0199;AGA CRYO
0200;AJAX
0201;ALLI
0202;AMERICAN REEFER
0203;ANDREU
0204;ARAVENA
0205;ARROW
0206;ASAV
0207;ATA
0208;ATLAS
0209;ATOKA
0210;AVAL
0211;BARNAY Y LEADS
0212;BECTOLINE
0213;BELL
0214;BELLE
0215;BENNES MARREL
0216;BERTOJA
0217;BERTOLINI
0218;BISELLI
0219;BLACK DIAMOND
0221;BLUMHARD
0222;BLUMHARDT
0223;BN
0224;BOBCAT
0225;BRADERNA FORS
0226;BRENNER
0227;BROWN
0228;BT PRIME MOVER
0229;BUDD
0230;BURDILES
0231;BURG
0232;BUSH
0233;CABURGA
0234;CADAFA
0235;CARCASI
0236;CASE
0237;CATALAN
0238;CATERPILLAR
0239;CEASA
0240;CEDARAPIDS
0241;CGB
0242;CHALLENGER
0243;CHANCEY
0244;CHASSIS
0245;CHOICE
0246;CINTYA
0247;CITY
0248;CLARK
0249;CLEMENT
0250;CODEC
0251;COLOSO SA
0252;COLOSO
0253;COMET
0254;COMETTO
0255;CONTAINERLAND
0256;COROVI
0257;COSAN
0258;CRAVEN TASKER
0259;CTS
0260;DAMBROZ
0261;DAYCO
0262;DE FREITAS
0263;DEEPROCK
0265;DONG FENG
0266;DOWNINGTOWN
0267;DRACO
0268;DUNHAM
0269;EAGER BEAV
0270;ECHEVARRIA
0271;ECONOLINE
0272;EDASA INFRA
0273;EL CAMINO REAC
0274;EMAZ
0275;EMI
0276;ERNST HEITLING
0277;ESKODA LIAZ
0278;ESPECIAL
0279;ESTANGAS
0280;ETNYRE
0281;FACHINNI
0282;FACCHINI
0283;FACHINI
0284;FAI
0285;FANAPOL
0286;FERNANDEZ
0287;FIAT ALLIS
0288;FONTAINE
0289;FORSS
0290;FRAVIL
0291;FREE WAY
0292;FRENHAUT
0293;YAKAMPER
0294;FREUHAUF
0295;FREHAUF
0296;FUMASA
0297;GABRIEL
0298;GALLEGOS
0299;GAMBOA
0300;GEHL
0301;GELOJARR
0302;GIAPA
0303;G Y G LTDA.
0304;GODOY Y GODOY LTDA.
0305;GOLDHOFER
0306;GONELLA
0307;GORI
0308;GUERRA
0309;HACKNEY
0310;HAMM
0311;HARVEST
0312;HEIL
0313;HELI
0314;HIDROCAMION
0315;HIGH
0316;HIGHWAY
0318;HOBBS
0319;HUMMER
0320;IMEXEL
0321;IDEROL
0322;IESA
0323;INCONEC
0324;INDUVAN
0325;INVICTA
0326;ISTRIA
0327;IVESA
0328;JAAR
0329;JB
0330;JBC
0331;JEMO
0332;JMSO
0333;JOHN DEERE
0334;JOHNSTON
0335;JORGE RODRIGUEZ
0336;JOSAVER
0337;JOST
0338;JREYES
0339;JUMARVI
0340;JUMBO
0341;JURMAR
0342;KENTUCKY
0343;KHORNLINER
0344;KIDRON
0345;KIMCO
0346;KNIGHT BODIES
0347;KOBELCO
0348;KOGAL
0349;KOMATSU
0350;KRONE
0351;LABEROS
0352;LANDAETA
0354;LAUTARO
0355;LEMANS
0356;LEIVA
0357;LEOCAR
0358;LIEBHERR
0359;LINKBELT
0360;LOADCRAFT
0361;LOAKING
0362;LOX EQUIPMENT COMPAN
0363;LUBBOCK
0364;LUFKIN
0365;MADELVA
0366;MAESTRO LELO
0367;MALDONADO
0368;MANCINI
0369;MAPAR
0370;MARREL
0371;MASER
0372;MASSEY FERGUSON
0373;MAXOTRUCK
0374;MEDICAL COACHES
0375;MEDICOACH
0376;METALPAR
0377;METALURGICA DEL PACIFICO
0378;MILLER
0379;MITO
0380;MONON
0381;MONTENEGRO
0382;MULTITRUCK
0383;MUSSRE
0384;NACIONAL
0385;NEW HOLLAND
0386;NOMA
0387;NORTINOS
0388;OKA
0389;OLYMET
0390;PACIFICO
0391;OMNIQUIP
0392;OTAEGUI
0393;P Y L
0394;PACTON
0395;PAINE
0396;PARRA
0397;PEERLES
0398;DUAHM
0399;PETERBILT
0400;PHELAN
0401;PICASSO
0402;PIKE
0403;PLAZA HERMANOS
0404;PLUMA
0405;PNO
0406;PROGRESO
0407;QUALITY
0408;RAMIREZ
0409;RECRUSOL
0410;REPAR
0411;REPCO
0412;RETI
0413;R.FUENTES
0414;RICHARD
0415;ROCONGU
0416;RODHAS
0417;RODOVIARIO
0418;ROGERS
0419;ROYCORD
0420;R.PLUMA
0421;R Y R
0422;SALAS
0423;SALTA
0424;SAME
0425;SANBERRO
0426;SANTIAGO
0427;SCAT TRAK
0428;SCHIAPPASSE
0429;SCHMITZ
0430;SCORPION
0432;SERVITRAIL
0433;SMITH
0434;SOBARZO
0435;SOGECO
0436;SPECIAL
0437;SANTA TERESA
0438;STEEL BROS
0439;STOUGHTON
0440;STOUNGHTON
0441;STRICK
0442;TALBERT
0443;TATSA
0444;TCM
0445;TERMOCAR
0446;TERSAINOX
0447;TAYCO
0448;THEURER
0449;THOMAS
0450;TIC
0451;TILLVERKARE
0452;TIMPTE
0453;TIMTE
0454;TITAN
0455;TMT
0456;TPI
0457;TRAILER
0458;TRAILKING
0459;TRAIMOBILE
0460;TRAILMOBILE
0461;TRAILMOVILE
0463;TRAILOR
0464;TRAIMOVILE
0465;TRANSAMERICA
0466;TRANSBOX
0467;TRANSCOIRO TRAILERS
0468;TRANSI
0469;TRAYERS
0470;TRINITY
0471;TRUCKING
0472;TYMAN
0473;UNION
0474;UNITRANS
0475;VALDATA
0476;VALMET
0477;VENCAR
0478;VERGARA
0479;VIVERTY
0480;VIC-MAR
0481;VIGOPRI
0482;VIKING
0483;WABASH
0484;WALLACE
0485;WEBB
0486;WITZCO
0487;YACOR
0488;YALE
0489;YAMUFER
0490;YNAC
0491;YUEJIN
0492;ZORZI
0493;ACOMET
0494;POLMOTOR FSO
0495;DARWIN
0496;ALUMGA
0497;SCORPIONI
0498;KAISER
0499;CARAVAN
0500;AEROVAN
0501;AGM
0502;ALCO STELL
0503;AMERICAN
0504;AMESCAR
0505;ASTON MARTIN
0506;ATLAS COPCO
0507;AB
0508;BERANZONI
0509;BUDC
0510;CALABRASSE
0511;CAR CARRIER
0512;CARACOL
0513;CARBONELL
0514;CASE INTERNATIONAL
0515;CHAMPION
0516;CIP
0517;CUSTOMER
0518;DAIMLER BENZ
0519;DAXARA
0520;DIPERK
0521;ENGESA
0522;ESCORT
0523;EUROMOT
0524;FALCON
0525;FARMY
0526;FORDSON
0527;FREIRE
0528;FUMA
0529;GURGEL
0530;HERNAN REY
0531;HYSTER
0532;IKA RENAULT
0533;IVESA-BUNOUT
0534;JCB
0535;JINMA
0536;JORDAN
0537;KAESSBOHRER
0538;KIAMASTER
0539;KOEHLER
0540;LAMBRETTA
0541;LANDEROS
0542;LANDINI
0543;MADESAL
0544;MAESTRANZA
0545;MANOLO
0546;MAPEL
0547;MARDONES
0548;MARGOTTI
0549;METALCAR
0550;MOTOMAK
0551;N WALQUER
0552;PARGO
0553;PEERLESS
0554;PH
0555;PM
0556;POLONEZ FSO
0557;RODAMEG
0558;RODRIGUEZ
0559;ROGAMET
0560;SANYA
0561;SANYANG
0562;SCHIFFER
0563;SICA
0564;SISU
0565;SKIU
0566;SMART
0567;STEEBROS
0568;STEELBRO
0569;YATCH CLUB
0570;SUMO
0571;TAVRIA
0572;TAYLOR DUNN
0573;TRANSCERO
0574;TRIVELATO
0575;VILLALTA
0576;YAK
0577;ZETOR
0578;BREUER
0579;COLE
0580;EAGHER BEAVER
0581;EAGLE
0582;EAST
0583;EUROPARD
0584;FLAT BEL
0585;GARDELLA
0586;GAZ
0587;GEO
0588;GILERA
0589;GLASTRON
0590;HERO
0591;HORMAZABAL
0592;HUBER WABCO
0593;J FREIG ING
0594;LASSAPORT
0595;MASSEY
0596;MUDAN
0597;SCHILGER
0598;VENTO
0599;YAKI
0600;YORK
0601;ALFA METAL
0602;ANDECORP
0603;BACKPACKER
0604;BANDIT
0605;BATISTA
0606;BIMOTA
0607;C-5
0608;CAGIVA
0609;CALKINS
0610;CAMP LET
0611;CARBELL
0612;CARIBBEAN
0613;CARIBBIAN
0614;CARIBE
0615;CERKA WBR
0616;CHUA
0617;COLEMAN
0618;COMANCHE
0619;CONBEL
0620;CONTINENTA
0621;CONTINENTAL
0622;CREATIVA
0623;ESCORDT
0624;ESSEX
0625;EZ LOADER
0626;FAW
0627;FIT
0628;FUTONG
0629;SKYGO
0630;HUSQVARNA
0631;INCOSER
0632;INDIVI
0633;JORCRI
0634;JOTHAWERK
0635;KARAVAN
0636;KARMAN
0637;KAWUELL
0638;KINROARD
0639;KUNSTMANN
0640;LAVERDA
0641;LEXS
0642;LEXUS
0643;LOAD
0644;LOAD RITE
0645;LONG CHIH
0646;LONSIN
0647;LUYERE
0648;MAJIC TILT
0649;MASTER LAND
0650;METALBERT
0651;METALCARGO
0652;MIDWEST
0653;NAUTIC
0654;NAUTISHOP
0655;NUWAY
0656;ORLANDI
0657;PALOMINO
0658;PARADA
0659;PG
0660;PRO NAUTICA
0661;RANGE ROVER
0662;RAPIDO
0663;REGAL
0664;REMOLQUE BF
0665;RESSE
0666;ROCKWOOD
0667;ROLLS ROYCE
0668;ROMET
0669;SAGNER
0670;SALEM
0671;SALUM
0672;SATURN
0673;SEADOO
0674;SHORELANDR
0675;SIGLO XXI
0676;SIMSON
0677;SIN MARCA
0678;SKYWAY
0679;SLM
0680;SOYODA
0681;SPARTAN
0682;SPORTBAS
0683;STAR CROFT
0684;STARKRAIT
0685;STATUS
0686;SUCAMUCAN
0687;SUCCUPIRA
0688;SUNBIRD
0689;SUPER TRACK
0690;TECNOMAR
0691;TM-1
0692;TRIGANO
0693;TURISCAR
0694;VAUXHALL
0695;VENTER
0696;VIKINGO
0697;WEEKEND
0698;WESTERN TRAVEL
0699;VALCAT
0700;AGROSER
0701;AM GENERAL
0702;AUTOSTYLE
0703;BELARUS
0704;BIRMINGHAM
0705;CAPPERI
0706;CGB TRAILER
0707;GINDY
0708;CIR F
0709;CLINTON
0710;CRISAN
0711;DEUTZ
0712;EAGER BEAVER
0713;FLOW BOY
0714;GEOVAL
0715;GERGNA
0716;GRAN DANES
0717;IMCO
0718;ITAL MEC
0719;IVECO-FIAT
0720;JAZ VERTI
0721;LOADKING
0722;MANITOU
0723;MAR TEC
0724;MASERVI
0725;METAL LEIVA
0726;METALURGICA
0727;MINGESER
0728;MURRELL
0729;NIELSON
0730;NORDON
0731;PAP
0732;ROBALME
0733;ROMAPAR
0734;SCHENIC
0735;SERGIO SIL
0736;SERGOCAR
0737;SRTATRESEIXOS
0738;STGUGHTON
0739;T SAEZ
0740;TALLER CONSTITUCION
0744;THOMSON
0745;TRAC LEASE
0746;TRAIL KING
0747;TRAINMOBIL
0748;TRASLAVIÑA
0749;UNICAR
0750;UNIVERSAL
0751;VALTRA
0752;VARELA
0753;WARNES
0754;WESTFALIA
0755;WILKLER
0756;WILSON
0757;CALYPSO
0758;COMAULE
0759;CROWLEY
0760;DAPAL
0761;DERCO
0762;DUNHAN
0763;FIORI CIMAS
0764;GICADO
0765;GRECO
0766;HARLEY DAVIDSON
0767;HERAL
0768;MOGI MIRIM
0769;MOTORMAN
0770;RENAULT CAMIVA
0771;SCHERTZER
0772;TECNOMAD
0773;TORMESOL
0774;URSUS
0775;A.M.Z.
0776;ALARCON Y ALARCON Y CIA
0777;ALMETAL
0778;C.M.S.A.
0779;CAÑOLES
0780;CUSTON HOY
0781;ECOLINE
0782;EMI LOAD LUGGER
0783;FABRILAINE
0784;FARESDAL
0785;FRAMMA
0786;FRIGOCAR
0787;IVESA BUNO
0788;IVEZA
0789;LAMBERT
0790;LAMMAR
0791;LOWBOY
0792;MERRIWORTH
0793;METALMOR
0794;OLIVA
0795;PEREIRA
0796;POLO
0797;RHONA
0798;RODELINEA
0799;RODIMET
0800;ROJA
0801;T VLADAM
0802;THUNDERBIRD
0804;TREMCAR
0805;TROJAN
0806;VAPOR INDUST
0807;WELLS
0808;WINNEBAGO
0809;XCMG
0810;CLAUDIO
0811;FIBA
0812;TRANSCRAF
0813;MAYAPE
0814;CARCARSI
0815;UBIL
0816;CONDOR
0817;ROSSI
0818;WESCO
0819;BENATI
0820;WUZHOULONG
0821;LANCER
0822;HOREX
0823;SHORELANDIR
0824;CM TRAILERS
0825;ALMAHUE
0826;WINTER
0827;SEMIREMOLQUE
0828;ROKWEL
0829;TRAINMOVIL
0830;WABACH
0831;INCA
0833;FIGUEROA
0834;DYNAWELD
0835;JM SOBARZO
0836;PESCE
0837;IGSA
0838;DURAN
0839;KROHNERT
0840;BAOTIAN
0841;JAICO
0842;MUJICA LTDA
0843;MUSTANG
0844;TRAILRITE
0845;FAMAG
0846;SCOTTY
0847;HERO TIME
0848;ROLLYVAN II
0849;ACKEMEN
0850;ALL-PIG
0851;BIG TEX
0852;DYNAPAC
0853;GARIMET
0854;GROVE
0855;IVERSA
0856;MAPAL
0857;OBBINOX SA
0858;TECMETAL
0859;TEMA TERRA
0860;TRASOLMEC
0861;SLC
0862;LAG
0863;LICIB
0864;AMSU
0865;IFA
0866;L  SERVICES
0867;METALICO
0868;MAX MOTOR
0869;HMC 700
0870;INV. TALAVERA
0871;GOLONDRINA
0872;OSGAR
0873;CERGNA
0874;D. BENZ
0875;MANAC
0876;ARTRAK
0877;CRESCENT
0878;PUBLITRUCK
0879;CASSAN
0880;DORS
0881;WACKENHUT
0882;NEUMAN
0883;BRICEÑO
0884;BEDARD
0885;BISCHOFF
0886;GOOSNECK
0887;ZORRITO
0888;ACES
0889;BRAVO
0890;ROMERO
0891;HUERTA
0892;TRANSTEB
0893;MAESTRANZA MONJE E HIJOS
0894;TOUGAS
0895;RANC
0896;LINHAI
0897;YUMBO
0898;SHORELAND
0899;CTM
0900;DALIAN
0901;BF
0902;MIT
0903;MICHIGAN
0904;SAURER
0905;LORAIN
0906;METALTRINC
0907;FRYTMA
0908;MASA
0909;PONDEROSA TRAILERS
0910;EFFEDI
0911;SOLMET
0912;PIÑA/BUSTOS
0913;DEUTZ-FR
0914;YTO
0915;ACMAT
0916;ROCYE
0917;XINKAI
0918;HOTCHKIS
0919;WRANGLER
0920;ESCORTS
0921;TALAVERA
0922;CYTRAFOR
0923;CYA
0924;PRATTI
0925;MIRIOS
0926;COMETAL
0927;NCH
0928;MAQUIP
0929;MAFRA
0930;ECHEVERRIA
0931;GUTIERREZ
0932;ABRAHAM C
0933;DANES
0934;HELLING
0935;DIASIL
0936;TRASIN TASKEN
0937;ALCO STEEL
0938;WALTER
0939;THREE RIVERS
0940;DANA
0941;COFRE
0942;TURISTAR
0943;ALEKO
0944;MARUTI
0945;ESKIN
0946;KAYAK
0947;ACOPLADO
0948;NEW HOLLAND FOR
0949;BARTON
0950;LINDE
0951;LAMBORGHINI
0952;DENNIS
0954;AGUAS BRAVAS
0955;NEUMANN
0956;HEBRON
0957;LOOVE
0958;ALCO
0959;SUMBEAM
0960;TURKE
0961;EGON
0962;AYS
0963;CONTAINERLAN
0964;FAMA QUIM
0965;HORCUL
0966;FREDERICK
0967;FURGOVAN
0968;FYN
0969;ITALMEC
0970;TDNT
0971;HOESCH
0972;VICTORY
0973;ALUNGA
0974;FARESVAL
0975;ITALDIESEL
0976;BOLOGNESI
0977;CENTRO SUR
0978;ZUÑIGA
0979;FABRE
0980;SERMINEROS
0981;ROYAL ENFIELD
0982;NEW HOLLAND FORD
0983;DISAL
0984;LOTUS
0985;DON ALFONSO
0986;FAC
0987;AGRICOSON
0988;DAIMLER CHRYSLER
0989;SICAO
0990;MAYOV
0991;ARTESANAL
0992;TACUL
0993;FLEETWOOD
0994;METALBER
0995;MAECIS
0996;KARI KOLL
0997;VAN HOOL
0998;HERMAN S-F
0999;SCHIAPPACASSE
1000;PATRONELLI
1001;LANDOLL
1002;INDECAR
1003;CALCARSI
1004;BUDO
1005;POLAR AMERICAM
1006;HSE
1007;RECRUSUL
1008;LYNN
1009;TRANSPACK
1010;ALGA
1011;FREITAS
1012;VARRIER
1013;CARONY
1014;PANAMERICANA
1015;SCHMIDT
1016;WABASE
1017;THYCO
1018;ANDI
1019;MIM
1020;DOLLEY
1021;HERCULES
1022;INVERTRUCK
1023;TRECAR
1024;TRANSERAFT
1025;M.F.V.
1026;NOOTEBOOM
1027;ECASO
1028;SO
1029;VITALMETAL
1030;TRAIVELER
1031;RASTROJERO
1032;ZEPELIN
1033;COHCHMEN
1034;NEW HOLLAND FIAT
1035;VIMAN
1036;SCHWARZE
1037;YACK
1038;MACI
1039;KRUPP
1040;BOOM
1041;GD
1042;INGERSOLL
1043;S.E.M.
1044;ACKERMANN
1045;VISA
1046;EAGER
1048;PINE
1049;IVESA BUNOUT
1050;TUCAPEL
1052;EYLERT
1053;LA GROSSE
1054;MELENDES
1055;PUELMA
1057;NORMAN WALKER G
1058;CANETTO
1059;RUCAHUE
1060;CIR
1061;NEST
1062;BROSHUIS
1063;S.F.F.
1064;MONOM
1065;AYAX
1066;AVIONEK S.A.
1067;WESTERN
1068;EL DETALLE
1069;GRIMME
1070;GWM
1071;DELTA
1072;FREIGHTLIN
1073;VARGAS
1074;STERLING
1075;MORBARK
1076;VAPOR INDUSTRIAL
1077;TRAIL MOBILE
1078;NETZER
1079;GHEYSN-VERPONT
1080;WALKER
1081;INTEGRADO
1082;REMTEC
1083;CONCABAL
1084;A Y R
1085;ICSZ
1086;BOSQUE
1087;BATEA
1088;AMERICA
1089;CEGNA
1090;NAVISTAR
1091;SCHINERAY
1092;EL RURAL
1093;BRILLANT
1094;JAK
1095;AC RESORTES
1096;KINGSPORT
1097;ISCZ
1098;IDEAL
1099;STARCRAFT
1100;ALABAMA
1101;MAQ Y TEC
1102;ROCONGO
1103;ASTRAK
1104;SALGADO
1105;R.A.
1106;BARBER
1107;COTTRELL
1108;CROWNLEY
1109;IMAI
1110;SANZAN
1111;SALTO
1112;CORRE CAMINO
1113;FANGIO
1114;MONAN
1115;STANDARD
1116;THERMO KING
1117;BOFA
1118;R PAWELKA
1119;NEWTON
1120;FREEHOUSS
1121;MANSILLA
1122;BLUNERAUNT
1123;BEAIRD
1124;ARIANE
1125;OCEANIC
1126;MELGARE
1127;CARRO TEMUCO
1128;TRIEL-HT
1129;REMOLQUES SALGADO
1130;SOLA Y BRUSA
1131;TAN
1132;GARTRACK
1133;TRACKER
1134;YINGANG
1135;SHINERAY
1136;JAYCO
1137;ELEPHANT
1138;JENNINGS
1139;CLAAS
1140;TN
1141;PONDEROSA
1142;PROMEN
1143;AEROTRACK
1144;COMAND CAR
1145;YUTONG
1146;PUTZMEISTER
1147;L.A. CARGO
1148;POWERSCREEN
1149;IZH
1150;JFREIGROUP
1151;MOUNTIFIQUE
1152;MONTERREY
1153;FENIX
1154;BLUMENN
1155;CARCAMO
1156;MAGYL
1157;CMI
1158;TRANSCRAFT
1159;SOTRAHUE
1160;JACOBSEN
1161;WABAS
1162;WEDHOLMS
1163;FRUSSO
1164;ALARCON
1165;HOESEN
1166;INMEL
1167;SYCSA
1168;ROBA
1169;INER IT-F
1170;MARTINEZ
1171;FLATBED
1172;OPPLEGGER
1173;HACKNEY TITAN
1174;M. DEL PACIFICO
1175;TIMPIE
1176;MUELLER
1177;HELVETICA
1178;COLUMBIA
1179;RODAFRENO
1180;BAILEY
1181;PATROMIN
1182;WITZCO CHALLENGER
1183;HOYBJERG
1184;TAMARA
1185;MURIALDO
1186;SHMIDT
1187;GATEWAY
1188;VALVE
1189;SERJENC
1190;AHIMELEC
1191;SERABAL
1192;NAUTIVAN
1193;PINGUELY
1194;SEA RAY
1195;ALJEDAH
1196;MV AGUSTA
1197;SHANGHAI
1198;JIANGSU F
1199;HURANCAN
1200;TAYLOR
1201;BOMAG
1202;FLORES
1203;HITACHI
1204;TEREX CRANES
1205;AVELING BARFORD
1206;DIECI
1207;SHENNIU
1208;NEOBUS
1209;SANY
1210;ROTAIR
1211;HOOPER
1212;COMPAIR
1213;ECOMET
1214;NGQ
1215;LEGRAS
1216;GAJARDO
1217;TEREX
1218;ANTONIO CARRARO
1219;CAPACITY
1220;MUZ
1221;DELGADO
1222;PUCALAN
1223;RUMBAUR
1224;SERVIHSAL
1225;MC DANIEL
1226;FULL PAK
1227;HECMAR
1228;GODOY GODOY LTDA
1229;PRIMEX
1230;KC 450
1231;PERFORMANCL
1232;OEHLER
1233;SERVIDOTO
1234;ELGIN PELICAN
1235;SASTA
1236;ULTRA-TRAI
1237;ADESSI
1238;AGRICOSON
1239;ATIM CHILE
1240;BRIAB
1241;DAVID BROWN
1242;DEUTZ-FAHR
1243;EPYSA
1244;FORTSCHRITT
1245;GDAN
1246;GUTY CAR
1247;LIFEN GROUP
1248;MAC DANIEL
1249;METALGO
1250;MEYER
1251;PATRELLI
1252;REBEL
1253;RHONE
1254;TERRANOVA
1255;TIBROOK
1256;VELASQUEZ
1257;VERGARA HN
1258;BDR
1259;BROCE BROOM
1260;CAMIVA
1261;CARDINAL
1262;CRANE CARRIER
1263;ELY
1264;GINDY MFG
1265;GOMEZ
1266;H.F.R.
1267;KAPPLER
1268;MIRA
1269;MONJE
1270;RABALME
1271;RIGO
1272;SAN FU
1273;SPRINGDAL
1274;TOLVA
1275;VICUÑA
1276;BENYI
1277;BIRGMINTON
1278;BUDDS
1279;COACHMEN
1280;CRIOGENICO
1281;DANYGLAD
1282;EDASA
1283;FRUEHAUE
1284;FAG
1285;FRESOL
1286;HAULMARK
1287;HONLEI
1288;MYP
1289;MHL
1290;RAVEENS
1291;REAL
1292;RELIANCE
1293;RODAMETAL
1294;SMF
1295;TALLER VR
1296;UNITED
1297;UNITED MOTORS
1298;WATSON
1299;AGRESORTES
1300;ALLIS CHALMERS
1301;BECERRA
1302;BERTHOUD
1303;DORSAY
1304;FAB
1305;FACHOR
1306;GOSNEUK
1307;HAFEI
1308;HANCOCK
1309;HOJBJETG
1310;HOME
1311;INACAR
1312;KARMANN
1313;KENNIS
1314;LA FUENTE
1315;MACTRAILER
1316;MAGIC TILT
1317;MAJESA
1318;MASMETAL
1319;MAXUM
1320;MAYUM
1321;MAYO
1322;NUTTAL
1323;TAURO
1324;TRAILBOSS
1325;TRANSDINAR
1326;VIVENTY
1327;ALCKAR
1328;ASPRO
1329;CARROVAN
1330;CICROSA
1331;CRAYEN
1332;FMC
1333;FURGON
1334;GM
1335;HERITAJE
1336;INCA FRUEH
1337;ISAFOR
1338;LUFMIN
1339;OLEGA
1340;OTTAWA
1341;REXPRESS
1342;RIZZATO
1343;SCRYFF
1344;SKAMPER
1345;TEMPO
1346;TONINO MOTOS
1347;VEJAR
1348;VICTORIA
1349;WACKER
1350;ADIGE
1351;APNOX
1352;ATENOS
1353;BLUHARDT
1354;BULTAN
1355;CAMPOS 2001
1356;COMMANDCAR
1357;DEUTZ FAHAR
1358;ELINBE
1359;GLOSTER
1360;GREAT
1361;HALF ROUND
1362;INGERSOLL RAND
1363;JOHNDEL
1364;KASSBOHRER
1365;MACINA
1366;RICSE
1367;SHOPMADE
1368;EVANS
1369;TADANO
1370;TAUNER
1371;TECNOSUR
1372;VIBE
1373;WOOD MIZER
1374;G TAPIA
1375;SERVITRAN
1376;CRAVE FREUHAUF
1377;CSVZ
1378;FAMSA
1379;PIRELLI
1380;GODEERIS
1381;TRABOSA
1382;SERMEQ
1383;CGB SERVITRAILER
1384;CCC
1385;CABONELL
1386;VEJARES
1387;IRSE
1388;HEIL TRAIL
1389;NUFFIELD
1390;VASALLI
1391;IMT DEXTA
1392;BLUMDART
1393;PRATIFRUEH
1394;ADP
1395;ALEXIM
1396;CURIME
1397;DRAGONI
1398;TRAVIN TASKEN
1399;GOLIAT
1400;RUSA
1401;SATFEL
1402;PRINROSE
1403;AZTEC
1404;FLOOR
1405;PABLO LOPEZ
1406;QIANJIANG
1407;TEC
1408;ALPEN
1409;UNIMOVIL
1410;APL
1411;ACERBI VEICOLIND
1412;ALGE
1413;AQUAMIN
1414;AQUEA TRAILLERS
1415;ASMAR VALPO
1416;BARTOLETTI
1417;BAYLINER
1418;BLUJAN
1419;BLUNERARD
1421;CAHUEN
1422;CARIER HOL
1423;CARVEEM
1424;CASE POCLAIN
1425;CHANLIN
1426;CHICAGO
1427;CHORELANDR
1428;CLASS
1429;DESOTO
1430;ELGA
1431;FXV
1432;GULF STREAM
1433;HNNTK
1434;HUND
1435;INTERCONSULT
1436;JONWAY
1437;KARL KASSEIBER
1438;LUREYE
1439;M.I.M.TR.
1440;METALSUR
1441;MISSISSIPPI
1442;OHIGGINS
1443;OMEGA
1444;PLASVIMACK
1445;RANPART
1446;REKA-BOX
1447;ROYCE
1448;S-M
1449;SCHWARZMUL
1450;SKEETER
1451;TERRY
1452;THAYCO
1453;TRAFOR
1454;TRANSCROFT
1455;TREILER
1456;VANCO
1457;AUPACO
1458;BAHER
1459;BIUDARD
1460;CABRERA
1461;CAMPING
1462;LBT
1463;GONTRAILER
1464;GYV
1465;HEILTRAYLE
1466;ITALMETAL
1467;JIAPENG
1468;KIBION
1469;LOHR
1470;MADRID
1471;MATHER PLAT
1472;MERLO
1473;MOBITECHS
1475;PULS
1476;ROCKET
1479;RYR
1481;SKIN
1482;SOCOMETAL
1483;TRANSAUTO
1484;YTASCA
1485;AGROMAX
1486;ANDRITEC
1487;AREVALO
1488;ARMETAL
1489;BRAUD
1491;CEMEN TECH
1492;CHEROKEE
1494;CRUZ DEL SUR
1495;CRYO AB
1496;DINE
1497;DOS RUEDAS
1498;DYNATEST
1499;FERMOGLAS
1500;FLEXI VAN
1501;GICAGO
1502;GOMATRO
1503;HIPER CIFALI
1504;JES
1505;MAGYAR
1506;MAQAM
1507;MULTICARGA
1508;OASIS
1509;PLASTIBAS
1510;POLAR TANK
1511;POLEO
1512;POLIRAM
1514;REID
1515;RODOVIARIA
1516;RTM
1517;SAUD
1518;SEARAY
1519;SHORELANDS
1520;SIERRA
1521;SOUTHERN
1522;STEADMAN
1523;STIK
1524;T INTL POOL-F
1525;TEMA BROSS
1526;TORREALBA
1527;TRALAVIA
1528;VICMAN
1529;WALINGA
1530;WALL
1531;AGROFER
1532;AQUACLIMA
1533;ARMAR
1534;ARTIGIANA
1535;ARUPPEN
1536;CARGO BOX
1537;CASTILLO
1538;CONARIEL-H
1539;CRIOGEN
1540;DKW
1541;FEATHERLIT
1542;GREAT NORTHERN
1543;HAMMAR
1544;INTECMA
1545;INVERCAS
1546;JOTA ENE
1547;M 
1548;MEDINA
1549;MEKANO
1550;MIM TRANS
1551;MONTERO
1552;NOPA
1553;RECAUSE
1554;REMCASA
1555;RONDON
1556;SHARPE M
1557;SATELITE
1558;SCATOLLINI
1559;STRAHUE
1560;SUBISA
1561;TYM
1562;VACCARO
1563;VILLARROEL HERMANOS
1564;W.Y.G.
1565;ACROTRAILER
1566;AGROMIR
1567;ALJO USA
1568;BEMASA
1569;CIBER
1570;CODESI
1571;CUACHMEN
1572;DITCH WITCH
1573;ECO
1574;EMPTY
1575;FOPAC
1577;GULTRO
1578;HC BY NI
1579;HUDSON
1580;JIN LUN
1581;JACK
1582;JAY
1583;LARRAIN
1584;LOBOS
1585;LONG GHIG
1586;LUF KIN
1587;MAHINDRA
1588;MONTRACON
1589;MUNMNTAL
1590;MYM
1591;PIÑA
1592;PLAY DAY
1593;RECRESOL
1594;SABP
1595;SEROVAN
1596;SMODELAMAR
1597;STEAD
1598;STEELBROS
1599;INAET
1600;SUNDIRO
1602;TFY 16
1603;TOKYU
1604;VALIANT
1605;WHITE MARTIN
1606;CARRIBEAN
1607;CRAUEN TASKER
1608;FREIG
1609;GEOMETRIAUTOS
1610;GOFA
1612;NAUTICA
1613;PIÑA BUSTO
1614;SELIA
1615;TORITO
1616;TRANSAR
1617;WILWOOD
1618;ZORRA PALOTE
1619;ALVACON
1620;ATV
1621;BGS
1622;CONESE
1623;COTUR
1624;F.BRODENNA
1625;FIBRA SUR
1626;FIC
1627;GIMOSON
1628;GLORIA
1629;GOTTWALD
1630;HR
1631;IHC
1632;IMPROMAS
1633;JIALING
1634;SPACER
1635;LORD
1636;METALAGRO
1637;METKO
1638;MITSUBISHI FUSO
1639;MOCBOR
1640;MOTONAUTICA
1641;PL
1642;POTTS
1643;R.I.
1644;REKABOX
1645;ROMERELLI
1646;SCHNELAND
1647;SCORT
1648;SOSEGO
1649;THRUR
1650;TORINO
1651;VASSALLI
1652;XGN AU TIC
1653;YUCHAI
1654;ACRESORTES LT
1655;AKERMAN
1656;AMERICAN TRAIL
1657;BEAVERTAIL
1658;BIANCHI
1659;BLUTGA
1660;BRUNS
1661;BUNOUT
1662;BUSH HOG LOADCRAFT
1663;CALKING
1664;CARR BN
1665;DARDIGNAC
1666;DIMARINE
1667;DMR TITAN
1668;E-ONE
1669;EMARIN
1670;FG WILSON
1671;GHIAFUN
1672;HOBLER
1673;INDUCORT
1674;JIMENEZ
1675;KRORR-BREU
1676;LIEBERT
1677;LJ SERVICES ESTANQUES
1678;MARBRA
1679;MASAL
1680;MAYSIB
1681;MORGAN
1682;PARKER
1683;PETROMIN
1684;RIEMAN
1685;SHORELANDERS
1686;STEYR
1687;STRABAG
1688;STRICLL
1689;SULLAIR
1690;TMS
1691;TORMESO
1692;TRAILMASTE
1693;VELOS
1694;VIBERTY
1695;VOLGA
1696;YAC
1697;AGROMAQ
1698;BEMORDSCH
1699;BERM
1700;BOGAN
1701;BREVER
1702;BRUCE LINE
1703;CISTERNA
1704;COLDMAN
1705;COTNER
1706;ESCORD
1707;GENERAL TRAILERS
1708;GRAVEN TASKER
1709;HANCOOCK
1710;HOOYMMEIJEI
1711;JENSEN
1712;KIN ROAD
1713;KRAMPE
1714;KUMOTO
1715;M.I.M.TRANS
1716;MOVISUR
1717;OSAEZ
1718;PSRKER
1719;SAN PABLITO
1720;SHIPING CUPAGE
1721;TRAIKEN TRAILER
1722;WASBASH
1723;BEIFANG
1724;AVENTURE JACK
1725;ARESA
1726;ATVTRAYLER
1727;BEYOND
1728;BISCAINE
1729;BLUNTER
1730;BONILLA
1731;BRADENAR
1733;CF MOTO
1734;CHANCY
1735;DOW
1736;DYMET
1737;EMBA CHILE
1738;FN
1739;GLOBE
1740;HENRY PARRA
1741;HIGHLINER
1742;INAC
1743;LOUKS
1744;MAC
1745;NARANJO
1746;OFF ROAD
1747;OLYMPIAN
1748;PRESTIGE
1749;PYR
1750;SIGU
1751;SKODA LIAZ
1752;SOLD BLOCK
1753;SPV
1754;STAR ROAD
1755;STARFLYER
1756;SUKIDA
1757;TRANSKAR
1759;UNKN
1760;VALTRA VALMET
1761;ALLIED
1766;AMASCAR
1767;AMERILITE
1768;ANDERSON
1769;BEART KAT
1770;BOBAINOX
1771;COACH
1772;COMETARSA
1773;CZ
1774;EMELTA
1775;FACOMET
1776;FREHAUS
1777;GABIOTA
1778;HOLMARK
1779;INGEMAR
1780;JETBOAT
1781;L.B 2007
1782;LASTRA
1783;MASTER COACH
1784;METALWORD
1785;MONTANA
1786;NAUTICA STD
1787;NUEVO
1788;PIERINO
1789;PITTS
1790;RECALUM
1791;RETSCH
1792;ROSCO
1793;SAVIEM
1794;SCHRORELANDS
1795;SERVITRUCK
1796;SHADOW
1797;SIDELIFTER
1798;SUPER LEVE
1799;TRIMEN
1800;USA
1801;WAVE ON
1802;SERRA
1803;AERO
1804;AEROFER
1805;ALEMAN
1806;CAMIVA BERLIET
1807;BETTA
1808;BOMBARDIER
1809;BRODERMAN FORSE
1810;CARIBREAN
1811;CARNAI
1812;CGM
1813;COMBY CAMP
1814;CORPLEINOX
1815;FEMOSA
1816;FORCE
1817;GEPLASMETAL
1818;GLASTON
1819;HAGIE
1820;HOBBY
1821;JAHA
1822;MX
1823;NABORES
1824;SUNWOOD
1825;WYG
1826;-385551
1827;ACEROTEC
1828;ACUVID BEW
1829;ADRIA
1830;ALGALUTER
1831;ALONSO
1832;ALPEN KREUSER
1833;ANDARIEGA
1834;ARTHUS
1835;ASSA
1836;AUPA
1837;BEJOISA
1838;BENYE
1839;BERANCAL
1840;BOURGOIN
1841;BRIDGEVILLE
1842;BRODERNA
1843;BUTLER
1844;BYRON
1845;CAN AM
1846;CARISBEAN
1847;CARTWRIGHT
1848;CESTARI
1849;CIMC
1850;CLM
1851;COMBEL
1852;COMEK
1853;CONQUEROR
1854;DELA
1855;DIFONT
1856;DOOSAN
1857;EASY LAWN
1858;EILOADER
1859;EL SALTO
1860;EL SURCO
1861;EMAPI
1862;EMETALCOS
1863;FENDT
1864;FOURWINNS
1865;GBTEL
1866;GOLI POLI
1867;GOOSENE
1868;GRAN CHEROKE
1869;GREV
1870;HOBBY WOHNWAG
1871;IMEG
1872;J.RODRIGUEZ
1873;J.O.M.M.
1874;JIEDA
1875;JINHUA YONGOIANG
1876;JUSTH
1877;KARMAN GHIA
1878;KITCAR
1879;LIMPTE BEAL
1880;LLCB
1881;LOADER
1882;MACAT
1883;MAESTRANZA CABRERO
1884;MALLARD
1885;MAQUINOX
1886;MASCUR
1887;MEDITEC
1888;MEXA
1889;NACASA
1890;NIÑO JESUS DE PRAGA
1891;OLIVARES
1892;OSHK
1893;OXBO
1894;PAROS
1895;PESCO
1896;PIACENSA
1897;PROWLER
1898;SAN JAVIER
1899;SHAANXI
1900;SHASTA
1901;SOBITEC
1902;STOKER
1903;SUN LINE
1904;SUN LUNE
1905;SVETRUCK
1906;TEKNICAR
1907;THULE
1908;TIP F
1909;TUERER
1910;TURISYAK
1911;VOTTERO
1912;WALTER ZAG
1913;WORK FORCE
1914;YENGOIANG
1915;YURISCAR YACK
1916;AGUALANDER
1917;AQUA-LANDER
1918;BOARD LON GYEAR
1919;BUNSTNER
1920;CHARLY
1921;COTTA
1922;CREATIVE
1923;DOLY
1924;E.K.S.
1925;EMAQUIP
1926;FELING
1927;FELIU
1928;FORTCAR
1929;GROVE CRANE
1930;GUILLOMETAL
1931;HAACON
1932;HERMOSILLA
1933;HUALLERE
1934;MAESTRANZA RAMIREZ
1935;MC CLAIN
1936;MERCO REMATE
1937;METALPROYECT
1938;MILLAS
1939;MSK
1940;NASH
1941;NITZCO
1942;PIC
1943;RHODAS
1944;SAETTA
1945;TRUEHAUF
1946;TURS-CAR
1947;AM
1948;BARRET
1949;CROP MASTER
1950;EGM
1951;FLEMEC
1952;FMA
1953;FRUE
1954;FREUHAUS
1955;J BOATS
1956;KGROFER
1957;KNAUS
1958;PC RESORTES
1959;REEFER
1960;REPARGAL
1961;SHARELAMAR
1962;STAR
1963;ACOPLAS
1964;BALMETAL
1965;BENNETT
1966;BETO
1967;CENTENARIO
1968;CIMA SAVARD
1969;DIXIE
1970;FIL
1971;FLAGSTA
1972;GIADACH
1973;LIONE
1974;LITOSTROJ
1975;LUTHER
1976;OMEGA NAUTIC
1977;PREIG-PREPO
1978;RODATEC
1979;ROSENBAUER
1980;SUPER DAF
1981;TURISCARYS
1982;APOSTOLIDIS
1983;AUSA
1984;BENTLEY
1985;BEREUER
1986;BESA
1987;BLUMAR
1988;BRENDERUP
1989;BRODEN FORD
1990;CIMA
1991;COLKINS
1992;CREE MARCE
1993;CURIMON
1994;DINO
1995;GDAN REEFER
1996;IFOR WILLIAMS
1997;KLAPP
1998;LORD LUGGER
1999;LEO-BA
2000;LEZTRA
2001;LS0750-TF5
2002;LUZHON
2003;MATALMOR
2004;METAL-LINE
2005;MONTECARLO
2006;NUTALL
2007;PINO
2008;POLYMERSO
2009;PRATTI FRUEHAUF
2010;PRIMEZ
2011;PROFILE
2012;PUNTO MOVIL
2013;REINELL
2014;RODOLFO JARA
2015;SIP
2016;SITTENSEN
2017;SPOTMEN
2018;TAMETAL
2019;TECNOCAMPO
2020;TRAILER NAUTIC
2021;TRANSMOVIL
2022;TRUCKS-F
2023;VERGARA HNO
2024;VOKES
2025;A Y S
2026;ADLER
2027;ADLY
2028;AGRIMAG
2029;ANHE-MAR
2030;ATIM
2031;BASTT
2032;BENAVIDES
2033;BRENT
2034;CORINA TRAILLERS
2035;DEPOL
2036;DOLL
2037;DUCAR
2038;ECOMETAL
2039;EDUARD
2040;FULLTRAILER
2041;HANGCHA
2042;HATTY
2043;HAUENSTEIN
2044;HCMG CLINTON
2045;HIDRONAQ
2046;IMAQ
2047;INCO
2048;IRCET
2049;JGB
2050;JACE
2051;JAMARI
2052;JHH
2053;KENSON
2054;KIEFER BUILT
2055;KOHNS
2056;LAYNE-F
2057;M CONTAINER-F
2058;M.TRUCK
2059;NATA
2060;NEW IDEA
2061;P Y H
2062;POP UP
2063;POTAIN
2064;PROMET
2065;RECORD
2066;REPUBER CHILE
2067;RIO MAIPO
2068;SOFIMAT
2069;SBS
2070;SCHMIDT ENGINEERING
2071;SERINGO
2072;SOLTMEQ
2073;SOREMEC
2074;SPITZ
2075;TATAN
2076;TMA
2077;TRAILER KIT
2078;UTIL
2079;VAL
2080;VULCANO
2081;W.K.
2082;ARRIAZA
2083;BEAVER
2084;BRAUN
2085;CAMING
2086;DAFF
2087;EL CAMINO
2088;FREMA
2089;H.FUENTES
2090;H G
2091;HC HAGCHA
2092;HECTOR CORNEJO
2093;HOLMER
2094;IMM
2095;INMECAR
2096;J.R
2097;LOOW BED
2098;MAR TRADE
2099;MET VERGARA HNOS LTDA
2100;MGH
2101;MONJE E HIJOS
2102;MOTORKOF
2103;NISI
2104;PATRI FUE
2105;QUALITY AND SERVICE LTDA
2106;ROCOM
2107;RODOLINEA
2108;ROTHEBER
2109;RUMANO
2110;SAN SEBASTIAN
2111;SANCHEZ-LA FUENTE
2112;SD
2113;THEU
2114;UNIMOG
2115;ZONGSHEN
2116;2 EJES
2117;ANDINO
2118;BILLALTA
2119;CERDA
2120;DIEZCO
2121;HORNET
2122;I RAND
2123;LA VARA
2124;M. STORME
2125;MATRA
2126;PETTIBONE
2127;REVALCO
2128;ROHAS
2129;SMI
2130;SOGA
2131;SOTO
2132;STEYR DAIMLER
2133;SYM SANYANG
2134;WT METALI
2135;ALHAMBRA
2136;ASILTEC
2137;BELTALCAR
2138;CARBBEAN
2139;CARMETAL
2140;FAST WIND
2141;FRUHEF
2142;KAS BORES
2143;L Y S
2144;MALLART
2145;PISO CAMINANTE
2146;ROCGU
2147;SIG
2148;AGUA CLIMA
2149;ALUMAS
2150;AMCM
2151;ASME
2152;BENELLI
2153;LADA NIVA
2154;LIFENG GROUP
2155;P.F
2156;SAN PABLO
2157;SCANDUCH
2158;SHORELAND R
2159;TRANSHER
2160;BECO
2161;BOECKMANN
2162;BOVMETAL
2163;FADECLA
2164;FARMO TRUCK LTDA
2165;FAUN-WILHAG
2166;GRAFCO
2167;IMTAC
2168;INDUMAP
2169;INGERSOLL-RAUN
2170;JOSAGA
2171;LIFENG
2172;MADEFE
2173;MATALCAR
2174;METALCAL
2175;NEIL
2176;PRIMER
2177;RTD
2178;SAN VALENTIN
2179;SHANGRAO
2180;REMANTRAIL
2181;WAGEN MEYE
2182;AL-JON
2183;ARCE
2184;CARRO DE ARRASTRE
2185;CARROCERIA PEREZ
2186;FOTON
2187;FRAMAVI
2188;IMAG
2189;KISSBORER
2190;L-JON
2191;LOWER
2192;MASAC
2193;NANEC
2194;QINGQI
2195;STAR LINE
2196;SUPERSHOT
2197;SAN MARINO
2198;SCHRAMM
2199;SINOTRUK
2200;STOUGHT
2201;SUNLONG
2202;TECNINOX
2203;THRUWAY
2204;TOKGH
2205;VIBERTI
2206;XINGYUE
2207;YIN XIANG
2208;ALLSOUT
2209;B.P.
2210;CARCARRIE
2211;CUSTOM HOIST
2212;DACORMY
2213;DARDINAC
2214;DIAZ
2215;FRENA
2216;FRIHAUS
2217;GMC
2218;HIDRO AX
2219;ITALIA
2220;MECANIZADOS LIZANA
2221;NOVITRACK
2222;ODISSEIS
2223;PENN
2224;REMFAB
2225;RHINO
2226;ROCKWELL
2227;SABA
2228;SAN CRISTO
2229;SCM
2230;STRAGE TRAILER-F
2231;THE BUDD
2232;TRUCK
2233;WASCO
2234;ZHONGXING
2235;BELLAVISTA
2236;MLC
2237;HORLAINER
2238;RIGOTTI
2239;TRAILNOR
2240;AGOMET
2241;BIVERTTI
2242;FX
2243;HUNTER
2244;ISAL
2245;LANGEMEYER
2246;RENNER
2247;VELILLA
2248;AGRIMEC
2249;BLAIRE
2250;DE LA CRUZ
2251;GENIE
2252;GLOBUS
2253;JRM
2254;ROCONGUE
2255;SPORT MOTORS
2256;SWITZCO
2257;TERRAFOR
2258;BLUNHART
2259;ELIAS A.C.R.
2260;FERROMACK
2261;INTEGRAL
2262;LOSO
2263;MONTELLI
2264;MUÑIZ
2265;SEMASA
2266;SPEEDSTER
2267;TURICAR
2268;VIPERTI
2269;XINGFU
2270;YAMOTO
2271;ATOMIX
2272;DRESSER
2273;MAURO
2274;SEAQUEST
2275;TENNANT
2276;TRANSEM
2277;MAQUINARIAS BIO BIO
2278;CNH
2279;CESO
2280;CLAND
2281;DEVELOPING
2282;GOLDONI
2283;INTELISERVICE
2284;LEDWELL
2285;MAESTRO OHIGGINS
2286;MAFP
2287;METALURGICA RANCAGUA
2288;MULTIUSO
2289;RECRESUL
2290;TIMPLE
2291;TRONQUERO
2292;WILSON TRAILER
2293;DELVA
2294;HORACIO CARVAJAL
2295;INFINITI
2296;INTERSTATE
2297;NU
2298;POL FORJAS
2299;PUGMILL
2300;SOUGTHON
2301;URBAN
2302;WELLS CARGO
2303;ZADRUGAR
2304;AGRIFOR
2305;CARRIE
2306;KING
2307;MAS
2308;METALSOL LTDA.
2309;MILAM S
2310;NISSAN FORKLIFT
2311;NWG
2312;ROCKFORD
2313;SHANTUO
2314;SOLTNET
2315;T-CHOICE
2316;ALWOPLAST
2317;ARAYA
2318;EBH
2319;INTERPRICE
2320;JCM
2321;NICOLAS
2322;NIFTYLIFT
2323;SAN FRANCISCO
2324;TLSMITH
2325;THEUR
2326;TRAILET
2327;ARRAUCO
2328;BMW
2329;DETROIT
2330;DRILTECH
2331;HANGZHOU-F
2332;PUMAR
2333;SOTROQUE
2334;TCL0708001
2335;VIBROMAX
2336;ABROVAN
2337;AGROESPAÑA
2338;BEAR CAT
2339;BONANZA
2340;DAKOTA
2341;DONRAM
2342;GREDIG
2343;MHO
2344;PACE AMERICAN
2345;SCHWING
2346;AC
2347;BANTAM
2348;E.C.R.
2349;JAC
2350;JOHN
2351;MASTER
2352;POWERPLUS
2353;PUCH
2354;SESTARI
2355;TRANSALP
2356;VL
2357;AGROCAMPO
2358;BAR
2359;CRUMONT
2360;DEMAG
2361;DURAMET
2362;LECININA
2363;M Y P
2364;OLYMPIA
2365;RECONGU
2366;STOU
2367;ALUMA
2368;AMERITRAIL
2369;BERNARDIN
2370;BONANO
2371;CMS
2372;CRAFCO
2373;ECHAVARRI
2374;EL TEMUCANO
2375;G. TAPIA
2376;HIDROHUTT
2377;HIMAC
2378;HISOURCE
2379;HUSKY
2380;JBW
2381;LMC
2382;M CID 005
2383;METALBIO
2384;NORDBERG
2385;PACIFIC
2386;RECOM COLD
2387;RETESA
2388;ROLLY VAN
2389;SHEANYANG JIMBEI
2390;SPEEDSTAR
2391;SUPREME
2392;SV
2393;TIMBERJACK
2394;TMCV
2395;TONCO
2396;CARPER
2397;EURONOT
2398;HARDY
2399;HERMANN KOHLER
2400;HERNAN REYES
2401;JMC
2402;LOAD MAX
2403;M B FAUN
2404;MAESTRANZA SAN CARLOS
2405;MAFRAL
2406;MAGRIMET
2407;MAPFRA
2408;MAVI
2409;MAZAFLOT
2410;MSM
2411;P. TRAILERS
2412;R C
2413;SCMCCB-700
2414;STATUSLIFT
2415;SUTTON
2416;THERMOKING
2417;TORNAMENTAL
2418;TOSCANA
2419;TRAILMOBIL
2420;TREMAS
2421;ZHEJIANG MAXIMAL FOR
2422;ZHONGTONG
2423;ALJO
2424;BANCE
2425;BARKO
2426;BEALL
2427;BETTRMAN
2428;BLUE BIRD
2429;BUDI
2430;CHARLES
2431;CANALMET
2432;CAPACCIO
2433;CAPTIVA
2434;CARL20
2435;CASA RODANTE
2436;CASE CORPORATION
2437;CONUMAR
2438;EAGLE OVERS
2439;FREEHOUSE
2440;FULL MOTO
2441;MAC-TRAIL
2442;MELISA
2443;NORTON
2444;OLIMPIAN CATERP
2445;RENTACLIMA
2446;SHARP
2447;SM
2448;SMA
2449;THEKMEC
2450;TORMEC
2451;TRAKTOR
2452;VALPADANA
2453;VERONA
2454;A.F.F.
2455;BERTONI
2456;BESAPORT
2457;DALVER
2458;FAUN
2459;FRUEHAUT
2460;GEELY
2461;HOOBS
2462;LAZARO
2463;METALJAR
2464;PPM
2465;TRANSGLOBAL
2466;YANG
2467;ZHONGNENG
2468;ISIS
2469;BASS
2470;CARRY
2471;EXPOFONTAR
2472;GRATE DANE
2473;ZIEMAN
2474;ADAMS
2475;ARROW TRAILERS
2476;ASTIVIA
2477;CARROCERIA
2478;CARROCERIAS MARENGO
2479;ELITE
2480;FARMTRAC
2481;FOSTI
2482;HAKO
2483;HETALCAR
2484;HUAYMA
2485;JONATHAN
2486;JPM
2487;KATO
2488;N/R
2489;PAG
2490;PAJONAL
2491;POLAR
2492;ROMER
2493;TECNOMA
2494;VAGA
2495;WILDERNES
2496;WIRTGEN
2497;ZHONGNENG ZNEN
2498;SCHONELAND
2499;2A/2B
2500;AGRAVE
2501;AGRODINA
2502;ARCTCO
2503;BYD
2504;CB
2505;CHAMONIX
2506;CHAN
2507;CHANGAN
2508;FIBERTEX
2509;FITZEL
2510;HOBIECAT
2511;HYDROYEK
2512;JACTO
2513;KOGEL
2514;LSV
2515;MAGIC TRAIL
2516;MEI
2517;MS
2518;MULLER
2519;NAUTISUR
2520;NORTH STAR
2521;OMBU
2522;PEDRO LAGOS
2523;PEÑUELAS
2524;POLYMERS
2525;RECLUSUL
2526;RED LINE
2527;ROWHE
2528;SALOMONE
2529;SALSCO
2530;SERGIO FUENTES
2531;SERMA DIESEL
2532;SKIGO
2533;SNORKEL
2534;SUNDOWNER
2535;TORRES
2536;TRANS HAUL
2537;VOKES STREAMLINE
2538;ZANELLA
2539;A TIM CHILE
2540;ACRESORTES
2541;FLORENCE
2542;FRONTLINE
2543;G SCHIAPPACASSE M
2544;HEYER
2545;INTEREXPRESST
2546;JCGQ
2547;KENDALL
2548;MAATSCHAP-F
2549;ORTIZ DE ZARATE
2550;OSHKOSH
2551;POCLAIN
2552;PRROW
2553;REMOLQUE
2554;SAN LUIS
2555;SHELBY
2556;SUPER TRAK
2557;TRAILLER MASTER
2558;TRANSCAR
2559;TRIM
2560;TUCSON
2561;X SJ 125T
2562;YAMKO
2563;ACOCAR
2564;AIRBOAT TRALIEFTWA
2565;AMECAR
2566;BANDY
2567;BJORN
2568;CADIE
2569;CANALES
2570;CARBONELI
2571;CIFALI
2572;EXS
2573;GREEN MACHINE
2574;HVA MAQUINARIAS
2575;INSIAIN
2576;KANGEN
2577;KING LONG
2578;KRUGER
2579;LEOMAR
2580;MAC GREGOR
2581;MAGIC
2582;MIFAR
2583;PORTAMOTOS
2584;QUE MOTO
2585;RALLY
2586;RANGER
2587;RUDEL
2588;TGB
2589;TROPEX
2590;AGROMETRENCO
2591;AMERICANO
2592;AMY
2593;ANTIVERO
2594;ASFALTEC
2595;BASHAN
2596;BISCANE
2597;BRAND
2598;BROCAL
2599;BRP CAN AM
2600;CAMPER
2601;CHAPARRAL
2602;COSTA BRAVA
2603;DE GRANDE
2604;DEKALD
2605;DILO
2606;DINA
2607;DONOSO
2608;ELLONDER
2609;EQUICAR
2610;EZLOADER
2611;FRONTERA ARCOR
2612;GCV
2613;GREAT WALL
2614;GROSSO
2615;HY MOTO
2616;INDUMETAL
2617;IRON FAIRY
2618;JINAN
2619;JOYHON
2620;KLONE
2621;KOEHRING
2622;LOOVE CHILE-SUECIA
2623;LOST RITE
2624;MONTOYA
2625;T.E.M.J.C.
2626;M.A.M.V.
2627;MAX 19
2628;MENDEZ
2629;MINSS
2630;MOKE
2631;MSAIL
2632;NIDWEST
2633;NINJA
2634;NUVAN
2635;O.R.S.
2636;OSCAR
2637;PINES
2638;PIONEER
2639;PYH
2640;RALEY
2641;ROHDAS
2642;SACHS
2643;SAFARI
2644;SUPPLY TECHNIKA
2645;TAPIA
2646;TOBARSILVA
2647;TOP COM INTERNATIONAL
2648;TORMAC
2649;TRANSMAN
2650;TURISTAL
2651;V TUERTO
2652;VALDEBENITO
2653;VENTO BKM
2654;VILLARROEL
2655;VOGT
2656;WILDERNESS
2657;ZOOMLION
2658;AC-CARROS
2659;ACROVAN
2660;AEROLITE
2661;AL-KO
2662;ALCANTARA
2663;ARAUCANA
2664;BUNSTER
2665;BLUMHANT
2666;CALSIN
2667;CAMC
2668;CAROLA
2669;CARROS
2670;CEDAR XL
2671;CHENGING
2672;CHERY
2673;CID
2674;COLORADO
2675;DORMIS
2676;DUTCHMEN
2677;EUNOS
2678;FIBERMOLD
2679;FMCO
2680;GINOTTI
2681;GOOSENECK
2682;GOSI
2683;GYG
2684;HEKU
2685;HOLLAND
2686;HUGO
2687;HYDROTEX
2688;JLR
2689;JON THOMPN
2690;JUAN CARVAJAL
2691;KARMAN CHIA
2692;KATZ-SPORTBAS
2693;LARRY PALMER
2694;MACISTE
2695;M. ALARCON
2696;M.B.
2697;MAPACOR
2698;MASTER TOW
2699;MC CORMICK
2700;MOBIL HOME
2701;NAJLE HAYE
2702;NANTIS
2703;NICOLAS JARA
2704;OÑATE LAGNIEL
2705;OTEIZA
2706;PULL
2707;ROAD KNIG
2708;SAMUEL METAL
2709;SEAPLAST
2710;SFB
2711;SILVA
2712;SIMM 
2713;SSCUPIDA
2714;STEPP MANUFACTURING
2715;TANK SPORT
2716;TECCAMPO
2717;TECFOR
2718;TIRRENA
2719;TOPAZ
2720;TRAILMOVIL
2721;TRAM CARD
2722;TRAS CAR
2723;VIN
2724;ALFA GEMENIS
2725;AXIAL FLOW
2726;BRAVA
2727;CASSAIN
2728;CATALINA
2729;CHANGJIAN
2730;CHITUMA
2731;CLAEYS
2732;CRYOGENIC VESSEL
2733;CYCLO
2734;DESTINY
2735;DUOPPO
2736;EMAGRI
2737;FDO. IBARRA
2738;FEROSOR
2739;FIDU
2740;INOXA
2741;KALKINS
2742;KARMANN-GHIA
2743;NIGBO N.F.T.Z.E.
2744;RICHARDTON
2745;SOUTH FLOR
2746;TANKSPORT
2747;TOCORNAL
2748;TRAIJER
2749;TRAMCAR
2750;VARIC
2751;8HP
2752;AZROVAN
2753;A.S.M.
2754;ACCARROS
2755;AEROLAN
2756;AUGUSTA
2757;AIELLO
2758;BADAPACKER-REESE
2759;BENYING
2760;BERTONANI
2761;BLUMAHARDT
2762;CAIO
2763;CASA VIEJA
2764;CIRIKA CLASSIC CRUISER
2765;COLOSO MR
2766;COMAP
2767;CONDOR 125
2768;CONMETAL
2769;CORREA
2770;DAMON
2771;DAYUN
2772;DEL FUEGO
2773;DEUTZ FAHR
2774;DONMA
2775;DUMP HILL
2776;ECHAVARRIA
2777;EIFFEL
2778;EUROMONT
2779;EXXISS
2780;FUJIAN
2781;GHOTAER
2782;GOLZ-NEPTUNE
2783;GREAT WALL MOTORS
2784;JIAJUE
2785;KOVATCH
2786;LANCY
2787;LIDDELL BE
2788;MC
2789;MCP
2790;MIMOTO
2791;MOTONAUTIC
2792;MOUNTRACK
2793;MRTALCAR
2794;MYCO TRAILERS
2795;NEW DNFG BY DONG FENG
2796;NOVOA
2797;OMASIN
2798;P G ACOPLADOS
2799;PARK KAN
2800;PERFOMETAL
2801;POPEYE
2802;PROLINE
2803;QME
2804;REB
2805;ROCUANT
2806;ROECHLING
2807;SSANG YONG
2808;SCDP-700
2809;SHENYANG JINBEI IMP
2810;SINSKI
2811;SMCTP
2812;SOUTHWEST
2813;SUCCUDIDA
2814;T.C.M.
2815;THERUE
2816;TIRGO
2817;TRAIL EZE
2818;TRAILLER
2819;TRYCKAL
2820;VULCAN
2821;VICAR LTDA
2822;ZHEJIANG SANYE FUXIN
2823;16 FT
2824;ALBA MOTORS
2825;ARAMET
2826;AUTORRAD
2827;CARIVIAN
2828;CLAUDIO GOREN
2829;DERBI
2830;MAFERPA
2831;TRAIL-BLAZER
2832;TRANSCRATT
2833;VITTO
2834;VOGOPRI
2835;WANCH
2836;YAKAMBER
2837;YIYING
2838;NUMAY
2839;A DE LA CRUZ
2840;ALLUE
2841;ALVARADO
2842;CIRRUS V6 3
2843;METALFIX
2844;MGM
2845;SHIFENG
2846;SOONER
2847;WOLF
2848;ARMADURA
2849;B Y R
2850;BELLONI
2851;CANDIA Y SILVA
2852;EAGER BEAR
2853;EL RAYO
2854;FAIM KOMATSU
2855;FRUEHAVE
2856;G.B.
2857;HECHIZO METAL
2858;HEINEMANN
2859;HONGYA
2860;J.P.L.
2861;JIMETAL
2862;JOSE GATICA C.
2863;KAZUMA
2864;LANTIS
2865;LIMING
2866;LIUGONG
2867;LOXO
2868;MADEMET
2869;MERO
2870;MICHELSON
2871;MITSA
2872;NORTHSTAR
2873;RC
2874;RECLUSUR
2875;SHACMAN
2876;SHENYANG JINBEI
2877;TEXAS PRIDE TRAILERS
2878;TORMINEC
2879;TRAILERS TRUCK
2880;VALENZUELA ASOCIADOS LTDA.
2881;VILLOLTA
2882;WUZHOULOG
2883;XGJAO
2884;PERFORMANCE
2885;HEIL TRAYLE
2886;ACERO AZUL
2887;AFROVAN
2888;AGRIA
2889;APPEL
2890;AROVAN
2891;BERALUZ
2892;BERTONATI
2893;BOLLNAS
2894;CARDOEN
2895;CARRARO
2896;CENTRO AUTO
2897;CENTURY
2898;CHANGFA
2899;CINDY
2900;CONSTITUCION
2901;CONSTRUCTOR
2902;CRANE
2903;CUSTOM
2904;DAIMLER
2905;DENNINSON
2906;EMECEPE
2907;FLAGSTAFF
2908;GONZALEZ
2909;GOOSE
2910;HUATAI
2911;HUBEI TIANDI HEAVY D
2912;KALMAR LMV
2913;LOAD LUGGER
2914;LOANCRAF
2915;LOVE CHILE
2916;LRJ TRAILERS
2917;MURRAY
2918;MAESTVERA
2919;MARANTS
2920;METAL MATIC
2921;METALMAQ
2922;NOTTEBOOM
2923;RENTOR
2924;SCHEURLE
2925;SMEDLEY
2926;SPORTRACK
2927;STOUGTHON
2928;STRIKE
2929;TERSA
2930;TRITON
2931;ZONDA
2932;AERO CUB
2933;ALL PIG
2934;AVENTURA JACK
2935;BEAN CAT
2936;BEIJIN
2937;BUMAR
2938;CABULLA 700 KGS
2939;CAMUS
2940;CARMIX
2941;CARPED
2942;CASE IH
2943;CBT
2944;CETOL
2945;CHAVEZ
2946;CIMTASA
2947;COAST TO COAST
2948;D'BETTO
2949;DALMI
2950;D BRITO
2951;RECROSUL
2952;DIAZA
2953;ERMES EIRL
2954;FEATHERLITE
2955;GLOVETRAILERS
2956;GMO OLEA
2957;HAULETTE
2958;HC CLINTON
2960;INGERDOLL-RAND
2961;INGSANYS
2962;INVEL
2963;KENDON
2964;LASBHOIRE
2965;LIONS
2966;MAICOLPUE
2967;MAJESTIC
2968;MARSOL
2969;MAX
2970;MAYKOL
2971;MESSERCHMIDT
2972;METAL LUZ
2973;MOBILEHANGAR
2974;NW 13601
2975;ODES
2976;RCA
2977;RINHO
2978;SACAMUCAN
2979;STANMETAL
2980;TASKER
2981;TERMICA
2982;THE HEIL
2983;TORVAL
2984;YONGRIANG
2985;ZEERO
2986;AMERICANA
2987;AREZA
2988;AST-PRA
2989;AVILA STRONGE
2990;BAYUNER
2991;RERIONATI
2992;BISSELLI
2993;BUCETA
2994;CARRY ON TRAILES
2995;CLAYSON
2996;COLES
2997;CONSTRUMOVIL
2998;DORSEY REEFER
2999;DAMON INTRUDER
3000;DROTT
3001;DUISSARRD
3002;DUNFRI
3003;E  TRAILER
3004;ETWYRE
3005;FAI KOMATSU
3006;FEMOGLAS
3007;GALION
3008;GRIA INTER
3009;HAGGLUNDS
3010;HIGER
3011;INGEMIN E.I.R.L.
3012;INGENIERIA JELDRES
3013;INSBRUCK
3014;ISUZO
3015;JINBEI
3016;KEEWAY
3017;LONGSTAR
3018;MAGNETIC
3019;MARINI
3020;METALBYD
3021;MEZZAMET
3022;MMC
3023;MUNIZAGA
3024;NESTED THUE
3025;O.A.L.E.
3026;PAREJA
3027;PETRELLI LTDA
3028;PIXALL
3029;RAM
3030;RESORTVALD
3031;RICID
3032;RIFFO
3033;RIGUAL
3034;ROCK PROOF BOAT
3035;SCHORLANDER
3036;SERRAPAT
3037;SERVICOL
3038;SERVINTEG
3039;SHANTUI
3040;SMX
3041;SNORKELIFT
3042;SOTRALIN
3043;SSUCUPIRA
3044;STORM
3045;TANDEM
3046;TORNEMAR
3047;TRAILER SATELITE
3048;TRANSPORTES SAN LUIS
3049;TRAYL ONA
3050;TRIAL KING
3051;URSUZ
3052;VALUETRAILER
3053;WT-METALL
3054;WW
3055;YAKOR
3056;A.C. CARROS
3057;ABC
3058;ABM
3059;ACETEC
3060;ACOMEC
3061;AGUADIMA
3062;AMC
3063;ANDY-F
3064;APPLIED SWEEPER
3065;ARBO
3066;ARRAUS
3067;AUTOVALD
3068;BAW
3069;BENSAA
3070;BRUNA
3071;CARRASCO
3072;CARRO DEL MAULE
3073;CM
3074;COACHMAN
3075;COOPERTAN
3076;DAEDONG-KIOTI
3077;DELTA ATV
3078;ESQUI HER
3079;EXHAUST
3080;EYLART
3081;FARMOTRUCK
3082;FABRIMAC
3083;FLOBAR
3084;FOUR WINDS
3085;FREJAUSE
3086;FURUKAWA
3087;HALTIC
3088;HAWE
3089;HERMANN GHUIA
3090;IMPOMAQ
3091;INDEX
3092;INMETAL
3093;J.B.W.
3094;J.H.
3095;J M BRAIR
3096;J.R. ARRASTRE
3097;JAOG
3098;JMD
3099;KOGAN
3100;KALMAR
3101;KALYN
3102;KAUFMINE
3103;KIT CAR
3104;KRAMER
3105;LEIKE
3106;MINI-500 XL
3107;MOTALA
3108;MOTO ABC
3109;NICOM
3110;NISSAN KORKLIFT
3111;PATILLO
3112;PATRICIA
3113;PITBIKES
3114;POSEIDON
3115;RAMBO
3116;REBOIN
3117;RESVAL
3118;RUYI
3119;SUMITOMO
3120;SANTANDER
3121;SOLMAN
3122;SUMMIT
3123;SUNLINE
3124;TAHOE
3125;TIPO AMERICANO
3126;TRANSTAINER
3127;TURMESOL
3128;UNIRODA
3129;WELGER
3130;XTREME
3131;YANGZHOU CIMC TONGHUA
3132;YIBEN
3133;ZAFER PAMPLONA
3134;APROVED
3135;AUTONAUTICA
3136;BLITZ
3137;BODI
3138;BOUNDER
3139;BRAMACAL
3140;BRANDIT
3141;BUMBRAT
3142;CEA
3143;CFING
3144;CGA
3145;CMO S
3146;COLOSO MOLINA
3147;DGA
3148;DURANT
3149;ERWINE'S MARINE
3150;EXISS
3151;FABREQUIPA
3152;FOREST RIVER
3153;GRAIN WEIGH
3154;GULY
3155;GUOWEI
3156;H Y R
3157;HAOJIN
3158;HEYNEMANN
3159;INVERCO
3160;JIANGSU
3161;J.C.
3162;JN
3163;KEYSTONE
3164;KINROAD
3165;KODIAK
3166;LA TORRE
3167;LOOVE CHILE
3168;LUKF
3169;M.A.F.C.
3170;MAESTRANZA CANTELE
3171;OAKLEY
3172;OVERLANDER
3173;PLATAFORMA
3174;PODEROSA
3175;POWER WIND
3176;RINGRI
3177;RECRUSEL
3178;ROAD KING
3179;RUDY ALARCON
3180;SANEX J FREIG
3181;SAVIAM
3182;SCION
3183;SEA - REY
3184;SEALUM
3185;SERVIAUTOS
3186;SHEMPP HIRTH-F
3187;SHINEDA
3188;SHORCLINE
3189;SNOW
3190;SSANGYONS
3191;TRAIL STAR
3192;TAFE
3193;TECHNOVA
3194;TEPUAL
3195;TRAVERSO
3196;VLADAM
3197;WINTERSTEIGER
3198;CRAIG
3199;FERNACAR
3200;ORTIZ
3201;ABARTH
3202;ALPINA
3203;ARIEL
3204;ARTEGA
3205;ARRINERA
3206;BELUMBURY
3207;BRILLIANCE
3208;BUGATTI
3209;CAKY
3210;CARVER
3211;CATERHAM
3212;CHANGHE
3213;CHATENET
3214;CORVETTE
3215;DFM
3216;DFSK
3217;DONGFENG
3218;DS
3219;FISKER
3220;FORNASARI
3221;FUSO
3222;GAC GONOW
3223;GAC MOTOR
3224;GOLDEN GRADON
3225;GTA
3226;HAIMA
3227;HENNESSEY
3228;HURTAN
3229;KOENIGSEGG
3230;LANDWIND
3231;MAXUS
3232;MAYBACH
3233;MCLAREN
3234;MELKUS
3235;MORRIS GARAGES
3236;PAGANI
3237;PGO
3238;R. SAMSUNG
3239;RENAULT TRUCKS
3240;RODING
3241;ROEWE
3242;SANLG
3243;SANTANA
3244;SPYKER
3245;TAZZARI
3246;TESLA
3247;THINK
3248;WANGYE
3249;WIESMANN
3250;W-MOTORS
3251;WULING
3252;YOUYI
3253;ZENVO
3254;ZNA
3255;ZOTYE
3256;ZXAUTO
3257;ZX
9991;NO-CLASIFICAD
9999;244
9999;244 DL
9999;MB
9999;MOTO
9999;BAIC
9999;DFLM
9999;GAC
9999;HAVAL
9999;CHEVETTE
9999;KANGOO 1.5
9999;ACTYON SPORT 2.0
9999;PRIDE 1.1 LX
9999;V16 KAI 1600 CC
9999;RENAULT SAMSUNG
9999;RENAULT SAMSUNG MOTORS
9999;TOWNACE 2.0
9999;PRIDE 1.. LX
9999;M BENZ
9999;M. BENZ